#Duchesse - Réunion du Vendredi 15/09

##Idées en vrac :


##Ordre du jour :

Tickets encore ouverts :


   * Vinilox: Se renseigner sur les cafés vie privée
   * Étienne : Se renseigner sur les imprimeurs pour le flyer
   * Fabien/Vini: Création des flyers
   * Kolbo : Création d'un tableau pour les comptes
   * Kolbo : Création du tableur adhésions
   * Accès beta ?
Fait :

   * Banque ok
   * Serveur installé
À faire :

   * Serveur à racker
   * Encore un peu de travail technique pour rendre le serveur prod-ready
       * Backups
       * Supervision
       * Logs
Point finances :
    Remplir le tableau réalisé par Kolbo5 avec des dépenses oubliées

Lancement des services : checklist
Communication
chatons.org - Modifier notre fiche


Assurance : conseil juridique

#CR

Préparer le café vie privée
Compte au Crédit Agricole ouvert d'ici la semaine prochaine

Compte gratuit pour chéquier + virements
Devis pour l'assurance de 82€ du crédit agricole aolrs gu'à la maci on a mieux pour moins cher (en particulier pas d'aide juridique au CA)

Vini a été déclaré comme secrétaire pour la banque

--> nécéssité d'avoir un document interne qui précise les rôles de chacun

-> Devis à la Macif : Vini

Flyers

Le flyer est temporaire, ciblé sur la conférence gesticulée / café vie privée.

-> Site à modifier pour mettre en valeur :
    - les annonces des réunions
    - les liens vers les réseaux sociaux : Milouse

-> Vérification du hook Git : Sacha

Un brouillon du flyer est distribué. Des remarques de modifications sont à prendre en compte.

-> Modification du flyer : Attribution à Vinilox
-> Impression et massicot : Zero

Café vie privée
Lieu du 30: bar la Dérive à Nantes


Salles :
    On sort de la réunion avec une date et la salle chez Pioche est réservée.

Finances : quelques lignes à rajouter dans notre trésorerie.
Des frais vont être engagés d'ici octobre.

Communiquer sur l'association :

   * - la notion d'argent : la clarté financière
   *
Un ticket est créé pour préparer la conférence.


S'entraîner à présenter Duchesse en deux minutes : Sacha / Vini

-> Zero nous parle de l'éthique des banques.

Point technique :

- On a qu'un serveur ?
- Ansible / chef ? Saltstack !

Sacha a bossé tout le week-end avec greg sur les fondations techniques.
Serveur (dell R300) installé sur debian vierge, firmwares à jour etc.
Le serveur sera réellement installé quand le ansible sera finalisé.
Encore un week-end de boulot avant de mettre en prod

Date prochaine réunion vendredi 6

-> Mettre au clair le bureau de l'association
  -> Contacter préfecture (zero)
  -> Contacter Thomas (sacha)
